#
# There is insufficient memory for the Java Runtime Environment to continue.
# Native memory allocation (malloc) failed to allocate 32784 bytes for Chunk::new
# Possible reasons:
#   The system is out of physical RAM or swap space
#   In 32 bit mode, the process size limit was hit
# Possible solutions:
#   Reduce memory load on the system
#   Increase physical memory or swap space
#   Check if swap backing store is full
#   Use 64 bit Java on a 64 bit OS
#   Decrease Java heap size (-Xmx/-Xms)
#   Decrease number of Java threads
#   Decrease Java thread stack sizes (-Xss)
#   Set larger code cache with -XX:ReservedCodeCacheSize=
# This output file may be truncated or incomplete.
#
#  Out of Memory Error (allocation.cpp:390), pid=15676, tid=0x0000000000001850
#
# JRE version: Java(TM) SE Runtime Environment (8.0_172-b11) (build 1.8.0_172-b11)
# Java VM: Java HotSpot(TM) 64-Bit Server VM (25.172-b11 mixed mode windows-amd64 compressed oops)
# Failed to write core dump. Minidumps are not enabled by default on client versions of Windows
#

---------------  T H R E A D  ---------------

Current thread (0x00000000145f8800):  JavaThread "C2 CompilerThread0" daemon [_thread_in_native, id=6224, stack(0x0000000015c60000,0x0000000015d60000)]

Stack: [0x0000000015c60000,0x0000000015d60000]
[error occurred during error reporting (printing stack bounds), id 0xc0000005]

Native frames: (J=compiled Java code, j=interpreted, Vv=VM code, C=native code)


Current CompileTask:
C2:  16769 3082       4       java.net.URLStreamHandler::toExternalForm (219 bytes)


---------------  P R O C E S S  ---------------

Java Threads: ( => current thread )
  0x0000000017e05800 JavaThread "Cache worker for Build Output Cleanup Cache (D:\Projects\challeges\.gradle\buildOutputCleanup)" [_thread_blocked, id=5280, stack(0x000000001ef30000,0x000000001f030000)]
  0x0000000017e02800 JavaThread "Build operations Thread 4" [_thread_blocked, id=356, stack(0x000000001ee30000,0x000000001ef30000)]
  0x0000000017e07000 JavaThread "Build operations Thread 3" [_thread_blocked, id=3440, stack(0x000000001ed30000,0x000000001ee30000)]
  0x0000000017e04800 JavaThread "Build operations Thread 2" [_thread_blocked, id=15640, stack(0x000000001ec30000,0x000000001ed30000)]
  0x0000000017358800 JavaThread "Build operations" [_thread_blocked, id=2308, stack(0x000000001eb30000,0x000000001ec30000)]
  0x0000000017357000 JavaThread "Cache worker for execution history cache (C:\Users\Andrey\.gradle\caches\5.6.2\executionHistory)" [_thread_blocked, id=12076, stack(0x000000001e430000,0x000000001e530000)]
  0x0000000017357800 JavaThread "Cache worker for cache directory md-rule (C:\Users\Andrey\.gradle\caches\5.6.2\md-rule)" [_thread_blocked, id=13584, stack(0x000000001dc70000,0x000000001dd70000)]
  0x000000001735d000 JavaThread "Cache worker for cache directory md-supplier (C:\Users\Andrey\.gradle\caches\5.6.2\md-supplier)" [_thread_blocked, id=15716, stack(0x000000001c8d0000,0x000000001c9d0000)]
  0x000000001735d800 JavaThread "Cache worker for file hash cache (D:\Projects\challeges\.gradle\5.6.2\fileHashes)" [_thread_blocked, id=12624, stack(0x000000001b560000,0x000000001b660000)]
  0x000000001735a800 JavaThread "Cache worker for journal cache (C:\Users\Andrey\.gradle\caches\journal-1)" [_thread_blocked, id=756, stack(0x00000000193c0000,0x00000000194c0000)]
  0x000000001735b800 JavaThread "File lock request listener" [_thread_in_native, id=3260, stack(0x00000000192c0000,0x00000000193c0000)]
  0x000000001735a000 JavaThread "Cache worker for file hash cache (C:\Users\Andrey\.gradle\caches\5.6.2\fileHashes)" [_thread_blocked, id=6140, stack(0x00000000191c0000,0x00000000192c0000)]
  0x0000000016bbb000 JavaThread "Thread-9" [_thread_blocked, id=15132, stack(0x0000000018ec0000,0x0000000018fc0000)]
  0x0000000015e2d000 JavaThread "Stdin handler" [_thread_blocked, id=4476, stack(0x0000000018dc0000,0x0000000018ec0000)]
  0x0000000016bba000 JavaThread "Asynchronous log dispatcher for DefaultDaemonConnection: socket connection from /127.0.0.1:51648 to /127.0.0.1:51649" [_thread_blocked, id=11272, stack(0x0000000018cc0000,0x0000000018dc0000)]
  0x0000000016bb6800 JavaThread "Daemon worker" [_thread_in_vm, id=10156, stack(0x0000000018bc0000,0x0000000018cc0000)]
  0x0000000016bb5800 JavaThread "Cancel handler" [_thread_blocked, id=11756, stack(0x0000000018ac0000,0x0000000018bc0000)]
  0x0000000017c95800 JavaThread "Handler for socket connection from /127.0.0.1:51648 to /127.0.0.1:51649" [_thread_in_native, id=7588, stack(0x00000000187c0000,0x00000000188c0000)]
  0x0000000017c90800 JavaThread "Daemon" [_thread_blocked, id=5896, stack(0x00000000186c0000,0x00000000187c0000)]
  0x0000000017d45000 JavaThread "Daemon periodic checks" [_thread_blocked, id=12480, stack(0x00000000185c0000,0x00000000186c0000)]
  0x000000001723d800 JavaThread "Incoming local TCP Connector on port 51648" [_thread_in_native, id=11180, stack(0x00000000184c0000,0x00000000185c0000)]
  0x0000000017c25000 JavaThread "Daemon health stats" [_thread_blocked, id=9368, stack(0x0000000017e80000,0x0000000017f80000)]
  0x0000000015d67800 JavaThread "Service Thread" daemon [_thread_blocked, id=2440, stack(0x0000000016360000,0x0000000016460000)]
  0x0000000015d63800 JavaThread "C1 CompilerThread2" daemon [_thread_blocked, id=10764, stack(0x0000000016260000,0x0000000016360000)]
  0x000000001464d800 JavaThread "C2 CompilerThread1" daemon [_thread_blocked, id=15160, stack(0x0000000016160000,0x0000000016260000)]
=>0x00000000145f8800 JavaThread "C2 CompilerThread0" daemon [_thread_in_native, id=6224, stack(0x0000000015c60000,0x0000000015d60000)]
  0x00000000145f6000 JavaThread "Attach Listener" daemon [_thread_blocked, id=14256, stack(0x0000000015b60000,0x0000000015c60000)]
  0x00000000145f5000 JavaThread "Signal Dispatcher" daemon [_thread_blocked, id=10632, stack(0x0000000015a60000,0x0000000015b60000)]
  0x00000000145da000 JavaThread "Finalizer" daemon [_thread_blocked, id=2844, stack(0x0000000015850000,0x0000000015950000)]
  0x00000000145b9000 JavaThread "Reference Handler" daemon [_thread_blocked, id=11148, stack(0x0000000015750000,0x0000000015850000)]
  0x0000000003182800 JavaThread "main" [_thread_blocked, id=12564, stack(0x0000000002f90000,0x0000000003090000)]

Other Threads:
  0x00000000145b7800 VMThread [stack: 0x0000000015650000,0x0000000015750000] [id=7548]
  0x0000000015d69800 WatcherThread [stack: 0x00000000165b0000,0x00000000166b0000] [id=7048]

VM state:not at safepoint (normal execution)

VM Mutex/Monitor currently owned by a thread: None

Heap:
 PSYoungGen      total 124928K, used 37267K [0x00000000f5580000, 0x00000000fdb00000, 0x0000000100000000)
  eden space 113152K, 32% used [0x00000000f5580000,0x00000000f79e4ee0,0x00000000fc400000)
  from space 11776K, 0% used [0x00000000fc400000,0x00000000fc400000,0x00000000fcf80000)
  to   space 11264K, 0% used [0x00000000fd000000,0x00000000fd000000,0x00000000fdb00000)
 ParOldGen       total 175104K, used 16809K [0x00000000e0000000, 0x00000000eab00000, 0x00000000f5580000)
  object space 175104K, 9% used [0x00000000e0000000,0x00000000e106a658,0x00000000eab00000)
 Metaspace       used 36413K, capacity 37392K, committed 37592K, reserved 1081344K
  class space    used 5200K, capacity 5507K, committed 5592K, reserved 1048576K

Card table byte_map: [0x0000000012640000,0x0000000012750000] byte_map_base: 0x0000000011f40000

Marking Bits: (ParMarkBitMap*) 0x00000000556a3c10
 Begin Bits: [0x0000000012b50000, 0x0000000013350000)
 End Bits:   [0x0000000013350000, 0x0000000013b50000)

Polling page: 0x00000000016e0000

CodeCache: size=245760Kb used=10801Kb max_used=10808Kb free=234958Kb
 bounds [0x0000000003280000, 0x0000000003d20000, 0x0000000012280000]
 total_blobs=3596 nmethods=2895 adapters=612
 compilation: enabled

Compilation events (10 events):
Event: 16.654 Thread 0x0000000015d63800 3085       1       org.gradle.internal.operations.OperationFinishEvent::getResult (5 bytes)
Event: 16.654 Thread 0x0000000015d63800 nmethod 3085 0x0000000003cf5b50 code [0x0000000003cf5ca0, 0x0000000003cf5db0]
Event: 16.656 Thread 0x0000000015d63800 3086       3       com.google.common.cache.LocalCache$StrongEntry::setValueReference (6 bytes)
Event: 16.656 Thread 0x0000000015d63800 nmethod 3086 0x0000000003cf7d90 code [0x0000000003cf7ee0, 0x0000000003cf8050]
Event: 16.656 Thread 0x0000000015d63800 3087       3       com.google.common.cache.LocalCache$Segment::preWriteCleanup (6 bytes)
Event: 16.657 Thread 0x0000000015d63800 nmethod 3087 0x0000000003cf79d0 code [0x0000000003cf7b40, 0x0000000003cf7ce8]
Event: 16.657 Thread 0x0000000015d63800 3088   !   3       com.google.common.cache.LocalCache$Segment::runLockedCleanup (39 bytes)
Event: 16.658 Thread 0x0000000015d63800 nmethod 3088 0x0000000003cfc990 code [0x0000000003cfcba0, 0x0000000003cfd6d8]
Event: 16.658 Thread 0x0000000015d63800 3089       3       com.google.common.cache.LocalCache$Segment::postWriteCleanup (5 bytes)
Event: 16.658 Thread 0x0000000015d63800 nmethod 3089 0x0000000003cf7190 code [0x0000000003cf7320, 0x0000000003cf7828]

GC Heap History (10 events):
Event: 10.540 GC heap before
{Heap before GC invocations=5 (full 1):
 PSYoungGen      total 76288K, used 7852K [0x00000000f5580000, 0x00000000fea80000, 0x0000000100000000)
  eden space 65536K, 0% used [0x00000000f5580000,0x00000000f5580000,0x00000000f9580000)
  from space 10752K, 73% used [0x00000000fa000000,0x00000000fa7ab370,0x00000000faa80000)
  to   space 10752K, 0% used [0x00000000f9580000,0x00000000f9580000,0x00000000fa000000)
 ParOldGen       total 175104K, used 635K [0x00000000e0000000, 0x00000000eab00000, 0x00000000f5580000)
  object space 175104K, 0% used [0x00000000e0000000,0x00000000e009ee28,0x00000000eab00000)
 Metaspace       used 20601K, capacity 21058K, committed 21248K, reserved 1067008K
  class space    used 3062K, capacity 3236K, committed 3328K, reserved 1048576K
Event: 10.596 GC heap after
Heap after GC invocations=5 (full 1):
 PSYoungGen      total 76288K, used 0K [0x00000000f5580000, 0x00000000fea80000, 0x0000000100000000)
  eden space 65536K, 0% used [0x00000000f5580000,0x00000000f5580000,0x00000000f9580000)
  from space 10752K, 0% used [0x00000000fa000000,0x00000000fa000000,0x00000000faa80000)
  to   space 10752K, 0% used [0x00000000f9580000,0x00000000f9580000,0x00000000fa000000)
 ParOldGen       total 175104K, used 7733K [0x00000000e0000000, 0x00000000eab00000, 0x00000000f5580000)
  object space 175104K, 4% used [0x00000000e0000000,0x00000000e078d6c0,0x00000000eab00000)
 Metaspace       used 20601K, capacity 21058K, committed 21248K, reserved 1067008K
  class space    used 3062K, capacity 3236K, committed 3328K, reserved 1048576K
}
Event: 11.758 GC heap before
{Heap before GC invocations=6 (full 1):
 PSYoungGen      total 76288K, used 65536K [0x00000000f5580000, 0x00000000fea80000, 0x0000000100000000)
  eden space 65536K, 100% used [0x00000000f5580000,0x00000000f9580000,0x00000000f9580000)
  from space 10752K, 0% used [0x00000000fa000000,0x00000000fa000000,0x00000000faa80000)
  to   space 10752K, 0% used [0x00000000f9580000,0x00000000f9580000,0x00000000fa000000)
 ParOldGen       total 175104K, used 7733K [0x00000000e0000000, 0x00000000eab00000, 0x00000000f5580000)
  object space 175104K, 4% used [0x00000000e0000000,0x00000000e078d6c0,0x00000000eab00000)
 Metaspace       used 28179K, capacity 28708K, committed 29056K, reserved 1075200K
  class space    used 3955K, capacity 4141K, committed 4224K, reserved 1048576K
Event: 11.767 GC heap after
Heap after GC invocations=6 (full 1):
 PSYoungGen      total 76288K, used 7588K [0x00000000f5580000, 0x00000000fdc00000, 0x0000000100000000)
  eden space 65536K, 0% used [0x00000000f5580000,0x00000000f5580000,0x00000000f9580000)
  from space 10752K, 70% used [0x00000000f9580000,0x00000000f9ce9260,0x00000000fa000000)
  to   space 12288K, 0% used [0x00000000fd000000,0x00000000fd000000,0x00000000fdc00000)
 ParOldGen       total 175104K, used 7741K [0x00000000e0000000, 0x00000000eab00000, 0x00000000f5580000)
  object space 175104K, 4% used [0x00000000e0000000,0x00000000e078f6c0,0x00000000eab00000)
 Metaspace       used 28179K, capacity 28708K, committed 29056K, reserved 1075200K
  class space    used 3955K, capacity 4141K, committed 4224K, reserved 1048576K
}
Event: 13.596 GC heap before
{Heap before GC invocations=7 (full 1):
 PSYoungGen      total 76288K, used 73124K [0x00000000f5580000, 0x00000000fdc00000, 0x0000000100000000)
  eden space 65536K, 100% used [0x00000000f5580000,0x00000000f9580000,0x00000000f9580000)
  from space 10752K, 70% used [0x00000000f9580000,0x00000000f9ce9260,0x00000000fa000000)
  to   space 12288K, 0% used [0x00000000fd000000,0x00000000fd000000,0x00000000fdc00000)
 ParOldGen       total 175104K, used 7741K [0x00000000e0000000, 0x00000000eab00000, 0x00000000f5580000)
  object space 175104K, 4% used [0x00000000e0000000,0x00000000e078f6c0,0x00000000eab00000)
 Metaspace       used 32139K, capacity 32878K, committed 33152K, reserved 1077248K
  class space    used 4462K, capacity 4707K, committed 4736K, reserved 1048576K
Event: 13.622 GC heap after
Heap after GC invocations=7 (full 1):
 PSYoungGen      total 124416K, used 8670K [0x00000000f5580000, 0x00000000fdb00000, 0x0000000100000000)
  eden space 113152K, 0% used [0x00000000f5580000,0x00000000f5580000,0x00000000fc400000)
  from space 11264K, 76% used [0x00000000fd000000,0x00000000fd877888,0x00000000fdb00000)
  to   space 11776K, 0% used [0x00000000fc400000,0x00000000fc400000,0x00000000fcf80000)
 ParOldGen       total 175104K, used 7749K [0x00000000e0000000, 0x00000000eab00000, 0x00000000f5580000)
  object space 175104K, 4% used [0x00000000e0000000,0x00000000e07916c0,0x00000000eab00000)
 Metaspace       used 32139K, capacity 32878K, committed 33152K, reserved 1077248K
  class space    used 4462K, capacity 4707K, committed 4736K, reserved 1048576K
}
Event: 15.460 GC heap before
{Heap before GC invocations=8 (full 1):
 PSYoungGen      total 124416K, used 58401K [0x00000000f5580000, 0x00000000fdb00000, 0x0000000100000000)
  eden space 113152K, 43% used [0x00000000f5580000,0x00000000f8610ee8,0x00000000fc400000)
  from space 11264K, 76% used [0x00000000fd000000,0x00000000fd877888,0x00000000fdb00000)
  to   space 11776K, 0% used [0x00000000fc400000,0x00000000fc400000,0x00000000fcf80000)
 ParOldGen       total 175104K, used 7749K [0x00000000e0000000, 0x00000000eab00000, 0x00000000f5580000)
  object space 175104K, 4% used [0x00000000e0000000,0x00000000e07916c0,0x00000000eab00000)
 Metaspace       used 34557K, capacity 35310K, committed 35416K, reserved 1079296K
  class space    used 4883K, capacity 5122K, committed 5208K, reserved 1048576K
Event: 15.484 GC heap after
Heap after GC invocations=8 (full 1):
 PSYoungGen      total 124928K, used 10081K [0x00000000f5580000, 0x00000000fdb00000, 0x0000000100000000)
  eden space 113152K, 0% used [0x00000000f5580000,0x00000000f5580000,0x00000000fc400000)
  from space 11776K, 85% used [0x00000000fc400000,0x00000000fcdd8470,0x00000000fcf80000)
  to   space 11264K, 0% used [0x00000000fd000000,0x00000000fd000000,0x00000000fdb00000)
 ParOldGen       total 175104K, used 7757K [0x00000000e0000000, 0x00000000eab00000, 0x00000000f5580000)
  object space 175104K, 4% used [0x00000000e0000000,0x00000000e07936c0,0x00000000eab00000)
 Metaspace       used 34557K, capacity 35310K, committed 35416K, reserved 1079296K
  class space    used 4883K, capacity 5122K, committed 5208K, reserved 1048576K
}
Event: 15.484 GC heap before
{Heap before GC invocations=9 (full 2):
 PSYoungGen      total 124928K, used 10081K [0x00000000f5580000, 0x00000000fdb00000, 0x0000000100000000)
  eden space 113152K, 0% used [0x00000000f5580000,0x00000000f5580000,0x00000000fc400000)
  from space 11776K, 85% used [0x00000000fc400000,0x00000000fcdd8470,0x00000000fcf80000)
  to   space 11264K, 0% used [0x00000000fd000000,0x00000000fd000000,0x00000000fdb00000)
 ParOldGen       total 175104K, used 7757K [0x00000000e0000000, 0x00000000eab00000, 0x00000000f5580000)
  object space 175104K, 4% used [0x00000000e0000000,0x00000000e07936c0,0x00000000eab00000)
 Metaspace       used 34557K, capacity 35310K, committed 35416K, reserved 1079296K
  class space    used 4883K, capacity 5122K, committed 5208K, reserved 1048576K
Event: 15.620 GC heap after
Heap after GC invocations=9 (full 2):
 PSYoungGen      total 124928K, used 0K [0x00000000f5580000, 0x00000000fdb00000, 0x0000000100000000)
  eden space 113152K, 0% used [0x00000000f5580000,0x00000000f5580000,0x00000000fc400000)
  from space 11776K, 0% used [0x00000000fc400000,0x00000000fc400000,0x00000000fcf80000)
  to   space 11264K, 0% used [0x00000000fd000000,0x00000000fd000000,0x00000000fdb00000)
 ParOldGen       total 175104K, used 16809K [0x00000000e0000000, 0x00000000eab00000, 0x00000000f5580000)
  object space 175104K, 9% used [0x00000000e0000000,0x00000000e106a658,0x00000000eab00000)
 Metaspace       used 34557K, capacity 35310K, committed 35416K, reserved 1079296K
  class space    used 4883K, capacity 5122K, committed 5208K, reserved 1048576K
}

Deoptimization events (10 events):
Event: 15.001 Thread 0x0000000016bb6800 Uncommon trap: reason=unstable_if action=reinterpret pc=0x0000000003ab78e4 method=org.gradle.internal.reflect.PropertyAccessorType.isGetGetterName(Ljava/lang/String;)Z @ 14
Event: 15.256 Thread 0x0000000016bb6800 Uncommon trap: reason=predicate action=maybe_recompile pc=0x00000000037dd448 method=com.google.common.base.CharMatcher.indexIn(Ljava/lang/CharSequence;I)I @ 22
Event: 15.367 Thread 0x0000000016bb6800 Uncommon trap: reason=range_check action=make_not_entrant pc=0x0000000003c13e5c method=java.lang.String.charAt(I)C @ 27
Event: 15.456 Thread 0x0000000016bb6800 Uncommon trap: reason=unstable_if action=reinterpret pc=0x00000000034e7ba0 method=java.net.URI.match(CJJ)Z @ 45
Event: 16.313 Thread 0x0000000016bb6800 Uncommon trap: reason=unstable_if action=reinterpret pc=0x0000000003815424 method=com.esotericsoftware.kryo.io.Input.readVarInt(Z)I @ 6
Event: 16.380 Thread 0x0000000016bb6800 Uncommon trap: reason=unstable_if action=reinterpret pc=0x00000000037f0800 method=com.esotericsoftware.kryo.io.Input.readUtf8Length(I)I @ 9
Event: 16.388 Thread 0x0000000017358800 Uncommon trap: reason=unstable_if action=reinterpret pc=0x00000000037d78d4 method=java.util.concurrent.ConcurrentHashMap.addCount(JI)V @ 34
Event: 16.389 Thread 0x0000000017e07000 Uncommon trap: reason=unstable_if action=reinterpret pc=0x00000000037f4834 method=com.esotericsoftware.kryo.io.Input.readUtf8Length(I)I @ 9
Event: 16.390 Thread 0x0000000017358800 Uncommon trap: reason=unstable_if action=reinterpret pc=0x00000000037fa5e4 method=com.esotericsoftware.kryo.io.Input.readUtf8Length(I)I @ 9
Event: 16.396 Thread 0x0000000017e07000 Uncommon trap: reason=unstable_if action=reinterpret pc=0x000000000374c01c method=java.util.concurrent.ConcurrentHashMap.addCount(JI)V @ 34

Classes redefined (0 events):
No events

Internal exceptions (10 events):
Event: 14.886 Thread 0x0000000016bb6800 Exception <a 'java/lang/ClassNotFoundException': java/util/CollectionBeanInfo> (0x00000000f7521890) thrown at [C:\re\workspace\8-2-build-windows-amd64-cygwin\jdk8u172\10810\hotspot\src\share\vm\classfile\systemDictionary.cpp, line 210]
Event: 14.886 Thread 0x0000000016bb6800 Exception <a 'java/lang/ClassNotFoundException': java/util/CollectionCustomizer> (0x00000000f752b618) thrown at [C:\re\workspace\8-2-build-windows-amd64-cygwin\jdk8u172\10810\hotspot\src\share\vm\classfile\systemDictionary.cpp, line 210]
Event: 15.198 Thread 0x0000000016bb6800 Exception <a 'java/lang/ClassNotFoundException': build_9f7cd5ko4fcov7otst2v3ui54BeanInfo> (0x00000000f7c0e168) thrown at [C:\re\workspace\8-2-build-windows-amd64-cygwin\jdk8u172\10810\hotspot\src\share\vm\classfile\systemDictionary.cpp, line 210]
Event: 15.198 Thread 0x0000000016bb6800 Exception <a 'java/lang/ClassNotFoundException': org/gradle/api/internal/project/ProjectScriptBeanInfo> (0x00000000f7c26b00) thrown at [C:\re\workspace\8-2-build-windows-amd64-cygwin\jdk8u172\10810\hotspot\src\share\vm\classfile\systemDictionary.cpp, line
Event: 15.199 Thread 0x0000000016bb6800 Exception <a 'java/lang/ClassNotFoundException': org/gradle/api/internal/project/ProjectScriptCustomizer> (0x00000000f7c3fa00) thrown at [C:\re\workspace\8-2-build-windows-amd64-cygwin\jdk8u172\10810\hotspot\src\share\vm\classfile\systemDictionary.cpp, li
Event: 15.200 Thread 0x0000000016bb6800 Exception <a 'java/lang/ClassNotFoundException': build_9f7cd5ko4fcov7otst2v3ui54Customizer> (0x00000000f7c61470) thrown at [C:\re\workspace\8-2-build-windows-amd64-cygwin\jdk8u172\10810\hotspot\src\share\vm\classfile\systemDictionary.cpp, line 210]
Event: 15.252 Thread 0x0000000016bb6800 Exception <a 'java/lang/ClassNotFoundException': org/gradle/plugin/use/internal/PluginRequestCollector$PluginDependenciesSpecImplBeanInfo> (0x00000000f7d14ea0) thrown at [C:\re\workspace\8-2-build-windows-amd64-cygwin\jdk8u172\10810\hotspot\src\share\vm\c
Event: 15.253 Thread 0x0000000016bb6800 Exception <a 'java/lang/ClassNotFoundException': org/gradle/plugin/use/internal/PluginRequestCollector$PluginDependenciesSpecImplCustomizer> (0x00000000f7d54d60) thrown at [C:\re\workspace\8-2-build-windows-amd64-cygwin\jdk8u172\10810\hotspot\src\share\vm
Event: 15.258 Thread 0x0000000016bb6800 Exception <a 'java/lang/ClassNotFoundException': org/gradle/plugin/use/internal/PluginRequestCollector$PluginDependencySpecImplBeanInfo> (0x00000000f7dc33a8) thrown at [C:\re\workspace\8-2-build-windows-amd64-cygwin\jdk8u172\10810\hotspot\src\share\vm\cla
Event: 15.259 Thread 0x0000000016bb6800 Exception <a 'java/lang/ClassNotFoundException': org/gradle/plugin/use/internal/PluginRequestCollector$PluginDependencySpecImplCustomizer> (0x00000000f7e02b88) thrown at [C:\re\workspace\8-2-build-windows-amd64-cygwin\jdk8u172\10810\hotspot\src\share\vm\c

Events (10 events):
Event: 16.661 loading class io/spring/gradle/dependencymanagement/internal/bridge/InternalComponents
Event: 16.661 loading class io/spring/gradle/dependencymanagement/internal/bridge/InternalComponents done
Event: 16.662 loading class io/spring/gradle/dependencymanagement/internal/pom/PomResolver
Event: 16.662 loading class io/spring/gradle/dependencymanagement/internal/pom/PomResolver done
Event: 16.663 loading class io/spring/gradle/dependencymanagement/internal/DependencyManagementConfigurationContainer
Event: 16.663 loading class io/spring/gradle/dependencymanagement/internal/DependencyManagementConfigurationContainer done
Event: 16.664 loading class org/gradle/api/DomainObjectCollection
Event: 16.664 loading class org/gradle/api/DomainObjectCollection done
Event: 16.664 loading class org/gradle/api/internal/ReflectiveNamedDomainObjectFactory
Event: 16.664 loading class org/gradle/api/internal/ReflectiveNamedDomainObjectFactory done


Dynamic libraries:
0x00007ff77ee70000 - 0x00007ff77eea7000 	C:\Program Files\Java\jdk1.8.0_172\bin\java.exe
0x00007ffdfd100000 - 0x00007ffdfd2f0000 	C:\WINDOWS\SYSTEM32\ntdll.dll
0x00007ffdfb2f0000 - 0x00007ffdfb3a2000 	C:\WINDOWS\System32\KERNEL32.DLL
0x00007ffdfa630000 - 0x00007ffdfa8d3000 	C:\WINDOWS\System32\KERNELBASE.dll
0x00007ffdfcb80000 - 0x00007ffdfcc23000 	C:\WINDOWS\System32\ADVAPI32.dll
0x00007ffdfcee0000 - 0x00007ffdfcf7e000 	C:\WINDOWS\System32\msvcrt.dll
0x00007ffdfc970000 - 0x00007ffdfca07000 	C:\WINDOWS\System32\sechost.dll
0x00007ffdfc5c0000 - 0x00007ffdfc6e0000 	C:\WINDOWS\System32\RPCRT4.dll
0x00007ffdfcc30000 - 0x00007ffdfcdc4000 	C:\WINDOWS\System32\USER32.dll
0x00007ffdfa190000 - 0x00007ffdfa1b1000 	C:\WINDOWS\System32\win32u.dll
0x00007ffdfceb0000 - 0x00007ffdfced6000 	C:\WINDOWS\System32\GDI32.dll
0x00007ffdfa340000 - 0x00007ffdfa4d4000 	C:\WINDOWS\System32\gdi32full.dll
0x00007ffdfb110000 - 0x00007ffdfb1ae000 	C:\WINDOWS\System32\msvcp_win.dll
0x00007ffdfa1c0000 - 0x00007ffdfa2ba000 	C:\WINDOWS\System32\ucrtbase.dll
0x00007ffdeb8a0000 - 0x00007ffdebb25000 	C:\WINDOWS\WinSxS\amd64_microsoft.windows.common-controls_6595b64144ccf1df_6.0.18362.418_none_e6c6b287130d565d\COMCTL32.dll
0x00007ffdfb3b0000 - 0x00007ffdfb6e6000 	C:\WINDOWS\System32\combase.dll
0x00007ffdfa2c0000 - 0x00007ffdfa340000 	C:\WINDOWS\System32\bcryptPrimitives.dll
0x00007ffdfc940000 - 0x00007ffdfc96e000 	C:\WINDOWS\System32\IMM32.DLL
0x00007ffdf9df0000 - 0x00007ffdf9e20000 	C:\WINDOWS\system32\DriverStore\FileRepository\nvacwu.inf_amd64_bdd6ea477d4e2fba\nvinitx.dll
0x00007ffdf9de0000 - 0x00007ffdf9dea000 	C:\WINDOWS\SYSTEM32\VERSION.dll
0x00007ffdfbd90000 - 0x00007ffdfc475000 	C:\WINDOWS\System32\Shell32.dll
0x00007ffdfa8e0000 - 0x00007ffdfa92a000 	C:\WINDOWS\System32\cfgmgr32.dll
0x00007ffdfc890000 - 0x00007ffdfc939000 	C:\WINDOWS\System32\shcore.dll
0x00007ffdfa990000 - 0x00007ffdfb10f000 	C:\WINDOWS\System32\windows.storage.dll
0x00007ffdfa000000 - 0x00007ffdfa01f000 	C:\WINDOWS\System32\profapi.dll
0x00007ffdfa020000 - 0x00007ffdfa06a000 	C:\WINDOWS\System32\powrprof.dll
0x00007ffdf9fd0000 - 0x00007ffdf9fe0000 	C:\WINDOWS\System32\UMPDC.dll
0x00007ffdfc6e0000 - 0x00007ffdfc732000 	C:\WINDOWS\System32\shlwapi.dll
0x00007ffdfa070000 - 0x00007ffdfa081000 	C:\WINDOWS\System32\kernel.appcore.dll
0x00007ffdfa170000 - 0x00007ffdfa187000 	C:\WINDOWS\System32\cryptsp.dll
0x0000000055af0000 - 0x0000000055af6000 	C:\Program Files\NVIDIA Corporation\CoProcManager\_etoured.dll
0x00007ffdf6370000 - 0x00007ffdf63ab000 	C:\Program Files\NVIDIA Corporation\CoProcManager\nvd3d9wrapx.dll
0x00007ffdfb6f0000 - 0x00007ffdfbb60000 	C:\WINDOWS\System32\SETUPAPI.dll
0x00007ffdfa140000 - 0x00007ffdfa166000 	C:\WINDOWS\System32\bcrypt.dll
0x00007ffdf8be0000 - 0x00007ffdf8c00000 	C:\WINDOWS\SYSTEM32\dxcore.dll
0x00007ffdf62c0000 - 0x00007ffdf62e4000 	C:\Program Files\NVIDIA Corporation\CoProcManager\nvdxgiwrapx.dll
0x0000000055730000 - 0x0000000055802000 	C:\Program Files\Java\jdk1.8.0_172\jre\bin\msvcr100.dll
0x0000000054e80000 - 0x0000000055723000 	C:\Program Files\Java\jdk1.8.0_172\jre\bin\server\jvm.dll
0x00007ffdfcdd0000 - 0x00007ffdfcdd8000 	C:\WINDOWS\System32\PSAPI.DLL
0x00007ffde97f0000 - 0x00007ffde97f9000 	C:\WINDOWS\SYSTEM32\WSOCK32.dll
0x00007ffdfd050000 - 0x00007ffdfd0bf000 	C:\WINDOWS\System32\WS2_32.dll
0x00007ffdf7eb0000 - 0x00007ffdf7ed4000 	C:\WINDOWS\SYSTEM32\WINMM.dll
0x00007ffdf7e80000 - 0x00007ffdf7ead000 	C:\WINDOWS\SYSTEM32\WINMMBASE.dll
0x0000000054e70000 - 0x0000000054e7f000 	C:\Program Files\Java\jdk1.8.0_172\jre\bin\verify.dll
0x0000000054e40000 - 0x0000000054e69000 	C:\Program Files\Java\jdk1.8.0_172\jre\bin\java.dll
0x0000000054e20000 - 0x0000000054e36000 	C:\Program Files\Java\jdk1.8.0_172\jre\bin\zip.dll
0x0000000054e00000 - 0x0000000054e1a000 	C:\Program Files\Java\jdk1.8.0_172\jre\bin\net.dll
0x00007ffdf97a0000 - 0x00007ffdf9807000 	C:\WINDOWS\system32\mswsock.dll
0x0000000054de0000 - 0x0000000054df1000 	C:\Program Files\Java\jdk1.8.0_172\jre\bin\nio.dll
0x00007ffddbdc0000 - 0x00007ffddbde6000 	C:\Users\Andrey\.gradle\native\30\windows-amd64\native-platform.dll
0x0000000054dd0000 - 0x0000000054ddd000 	C:\Program Files\Java\jdk1.8.0_172\jre\bin\management.dll
0x00007ffdf9310000 - 0x00007ffdf9343000 	C:\WINDOWS\system32\rsaenh.dll
0x00007ffdf9ef0000 - 0x00007ffdf9f15000 	C:\WINDOWS\SYSTEM32\USERENV.dll
0x00007ffdf9970000 - 0x00007ffdf997c000 	C:\WINDOWS\SYSTEM32\CRYPTBASE.dll
0x00007ffdf94b0000 - 0x00007ffdf94ea000 	C:\WINDOWS\SYSTEM32\IPHLPAPI.DLL
0x00007ffdfc5b0000 - 0x00007ffdfc5b8000 	C:\WINDOWS\System32\NSI.dll
0x00007ffdf2610000 - 0x00007ffdf2626000 	C:\WINDOWS\SYSTEM32\dhcpcsvc6.DLL
0x00007ffdf2040000 - 0x00007ffdf205c000 	C:\WINDOWS\SYSTEM32\dhcpcsvc.DLL
0x00007ffdf94f0000 - 0x00007ffdf95ba000 	C:\WINDOWS\SYSTEM32\DNSAPI.dll

VM Arguments:
jvm_args: -XX:MaxMetaspaceSize=256m -XX:+HeapDumpOnOutOfMemoryError -Xms256m -Xmx512m -Dfile.encoding=windows-1251 -Duser.country=RU -Duser.language=ru -Duser.variant 
java_command: org.gradle.launcher.daemon.bootstrap.GradleDaemon 5.6.2
java_class_path (initial): C:\Users\Andrey\.gradle\wrapper\dists\gradle-5.6.2-bin\3clyn6icets6f02ptgd5hlmou\gradle-5.6.2\lib\gradle-launcher-5.6.2.jar
Launcher Type: SUN_STANDARD

Environment Variables:
JAVA_HOME=C:\Program Files\Java\jdk1.8.0_172
PATH=C:\Program Files\JetBrains\IntelliJ IDEA 2019.2\jbr\\bin;C:\Program Files\JetBrains\IntelliJ IDEA 2019.2\jbr\\bin\server;C:\Program Files (x86)\Common Files\Oracle\Java\javapath;C:\Program Files (x86)\Common Files\Intel\Shared Libraries\redist\intel64\compiler;C:\Program Files (x86)\Common Files\Intel\Shared Libraries\redist\ia32\compiler;C:\ProgramData\Oracle\Java\javapath;C:\Windows\system32;C:\Windows;C:\Windows\System32\Wbem;C:\Windows\System32\WindowsPowerShell\v1.0\;C:\Program Files (x86)\NVIDIA Corporation\PhysX\Common;C:\WINDOWS\system32;C:\WINDOWS;C:\WINDOWS\System32\Wbem;C:\WINDOWS\System32\WindowsPowerShell\v1.0\;C:\Program Files\Git\cmd;C:\WINDOWS\System32\OpenSSH\;C:\Program Files\nodejs\;C:\Go\bin;C:\Gradle\gradle-4.10.2\bin;C:\Program Files\TortoiseSVN\bin;C:\Users\Andrey\AppData\Local\Microsoft\WindowsApps;C:\Users\Andrey\AppData\Local\Programs\Python\Python36\;C:\Program Files\MongoDB\Server\4.0\bin;C:\Users\Andrey\AppData\Roaming\npm;C:\Users\Andrey\go\bin;
USERNAME=Andrey
OS=Windows_NT
PROCESSOR_IDENTIFIER=Intel64 Family 6 Model 42 Stepping 7, GenuineIntel



---------------  S Y S T E M  ---------------

OS: Windows 10.0 , 64 bit Build 18362 (10.0.18362.329)

CPU:total 4 (initial active 4) (2 cores per cpu, 2 threads per core) family 6 model 42 stepping 7, cmov, cx8, fxsr, mmx, sse, sse2, sse3, ssse3, sse4.1, sse4.2, popcnt, avx, aes, clmul, ht, tsc, tscinvbit

Memory: 4k page, physical 12431212k(4010376k free), swap 13250412k(3036k free)

vm_info: Java HotSpot(TM) 64-Bit Server VM (25.172-b11) for windows-amd64 JRE (1.8.0_172-b11), built on Mar 28 2018 21:21:52 by "java_re" with MS VC++ 10.0 (VS2010)

time: Sat Nov 02 14:10:24 2019
elapsed time: 16 seconds (0d 0h 0m 16s)

